{"code":200,"status":"Ok","copyright":"© 2020 MARVEL","attributionText":"Data provided by Marvel. © 2020 MARVEL","attributionHTML":"<a href=\"http://marvel.com\">Data provided by Marvel. © 2020 MARVEL</a>","etag":"667b46492ca06803967cb51ca91b810794d59c3e","data":{"offset":0,"limit":3,"total":2560,"count":3,"results":[{"id":27238,"digitalId":0,"title":"Wolverine Saga (2009) #7","issueNumber":7,"variantDescription":"","description":null,"modified":"-0001-11-30T00:00:00-0500","isbn":"","upc":"5960606814-00711","diamondCode":"","ean":"","issn":"","format":"Comic","pageCount":32,"textObjects":[],"resourceURI":"http://gateway.marvel.com/v1/public/comics/27238","urls":[{"type":"detail","url":"http://marvel.com/comics/issue/27238/wolverine_saga_2009_7?utm_campaign=apiRef&utm_source=6322493c94850fc55eb89b59ee5bd35e"}],"series":{"resourceURI":"http://gateway.marvel.com/v1/public/series/8086","name":"Wolverine Saga (2009)"},"variants":[],"collections":[],"collectedIssues":[],"dates":[{"type":"onsaleDate","date":"2029-12-31T00:00:00-0500"},{"type":"focDate","date":"2009-06-11T00:00:00-0400"}],"prices":[{"type":"printPrice","price":0}],"thumbnail":{"path":"http://i.annihil.us/u/prod/marvel/i/mg/b/40/image_not_available","extension":"jpg"},"images":[],"creators":{"available":1,"collectionURI":"http://gateway.marvel.com/v1/public/comics/27238/creators","items":[{"resourceURI":"http://gateway.marvel.com/v1/public/creators/4430","name":"Jeff Youngquist","role":"editor"}],"returned":1},"characters":{"available":2,"collectionURI":"http://gateway.marvel.com/v1/public/comics/27238/characters","items":[{"resourceURI":"http://gateway.marvel.com/v1/public/characters/1009368","name":"Iron Man"},{"resourceURI":"http://gateway.marvel.com/v1/public/characters/1009718","name":"Wolverine"}],"returned":2},"stories":{"available":2,"collectionURI":"http://gateway.marvel.com/v1/public/comics/27238/stories","items":[{"resourceURI":"http://gateway.marvel.com/v1/public/stories/59792","name":"Cover #59792","type":"cover"},{"resourceURI":"http://gateway.marvel.com/v1/public/stories/59793","name":"Interior #59793","type":"interiorStory"}],"returned":2},"events":{"available":0,"collectionURI":"http://gateway.marvel.com/v1/public/comics/27238/events","items":[],"returned":0}},{"id":16233,"digitalId":0,"title":"Cap Transport (2005) #13","issueNumber":13,"variantDescription":"","description":null,"modified":"-0001-11-30T00:00:00-0500","isbn":"","upc":"","diamondCode":"","ean":"","issn":"","format":"Comic","pageCount":0,"textObjects":[],"resourceURI":"http://gateway.marvel.com/v1/public/comics/16233","urls":[{"type":"detail","url":"http://marvel.com/comics/issue/16233/cap_transport_2005_13?utm_campaign=apiRef&utm_source=6322493c94850fc55eb89b59ee5bd35e"}],"series":{"resourceURI":"http://gateway.marvel.com/v1/public/series/2722","name":"Cap Transport (2005 - 2006)"},"variants":[],"collections":[],"collectedIssues":[],"dates":[{"type":"onsaleDate","date":"2029-12-31T00:00:00-0500"},{"type":"focDate","date":"-0001-11-30T00:00:00-0500"}],"prices":[{"type":"printPrice","price":0}],"thumbnail":{"path":"http://i.annihil.us/u/prod/marvel/i/mg/b/40/image_not_available","extension":"jpg"},"images":[],"creators":{"available":7,"collectionURI":"http://gateway.marvel.com/v1/public/comics/16233/creators","items":[{"resourceURI":"http://gateway.marvel.com/v1/public/creators/2133","name":"Tom Brevoort","role":"editor"},{"resourceURI":"http://gateway.marvel.com/v1/public/creators/5248","name":"Molly Lazer","role":"editor"},{"resourceURI":"http://gateway.marvel.com/v1/public/creators/4371","name":"Andy Schmidt","role":"editor"},{"resourceURI":"http://gateway.marvel.com/v1/public/creators/367","name":"Ed Brubaker","role":"writer"},{"resourceURI":"http://gateway.marvel.com/v1/public/creators/5251","name":"Vc Joe Caramagna","role":"letterer"},{"resourceURI":"http://gateway.marvel.com/v1/public/creators/8504","name":"Frank D'ARMATA","role":"colorist"},{"resourceURI":"http://gateway.marvel.com/v1/public/creators/374","name":"Steve Epting","role":"penciler"}],"returned":7},"characters":{"available":3,"collectionURI":"http://gateway.marvel.com/v1/public/comics/16233/characters","items":[{"resourceURI":"http://gateway.marvel.com/v1/public/characters/1009220","name":"Captain America"},{"resourceURI":"http://gateway.marvel.com/v1/public/characters/1009297","name":"Falcon"},{"resourceURI":"http://gateway.marvel.com/v1/public/characters/1009368","name":"Iron Man"}],"returned":3},"stories":{"available":3,"collectionURI":"http://gateway.marvel.com/v1/public/comics/16233/stories","items":[{"resourceURI":"http://gateway.marvel.com/v1/public/stories/33989","name":"The Winter Soldier, Part 5","type":"cover"},{"resourceURI":"http://gateway.marvel.com/v1/public/stories/33990","name":"The Winter Soldier, Part 5 of 6","type":"interiorStory"},{"resourceURI":"http://gateway.marvel.com/v1/public/stories/33991","name":"Freedom of Speech","type":"letters"}],"returned":3},"events":{"available":0,"collectionURI":"http://gateway.marvel.com/v1/public/comics/16233/events","items":[],"returned":0}},{"id":84518,"digitalId":0,"title":"Iron Man 2020: Director’s Cut Edition (2020) #1","issueNumber":1,"variantDescription":"","description":null,"modified":"2020-01-10T09:50:35-0500","isbn":"","upc":"","diamondCode":"","ean":"","issn":"","format":"Comic","pageCount":1,"textObjects":[],"resourceURI":"http://gateway.marvel.com/v1/public/comics/84518","urls":[{"type":"detail","url":"http://marvel.com/comics/issue/84518/iron_man_2020_directors_cut_edition_2020_1?utm_campaign=apiRef&utm_source=6322493c94850fc55eb89b59ee5bd35e"},{"type":"purchase","url":"http://comicstore.marvel.com/IRON-MAN-2020-1-DIRECTOR-S-CUT-EDITION-1/digital-comic/53689?utm_campaign=apiRef&utm_source=6322493c94850fc55eb89b59ee5bd35e"}],"series":{"resourceURI":"http://gateway.marvel.com/v1/public/series/29795","name":"Iron Man 2020: Director’s Cut Edition (2020)"},"variants":[],"collections":[],"collectedIssues":[],"dates":[{"type":"onsaleDate","date":"2020-01-15T00:00:00-0500"},{"type":"focDate","date":"-0001-11-30T00:00:00-0500"}],"prices":[{"type":"printPrice","price":0}],"thumbnail":{"path":"http://i.annihil.us/u/prod/marvel/i/mg/a/30/5e15f64b299ff","extension":"jpg"},"images":[{"path":"http://i.annihil.us/u/prod/marvel/i/mg/a/30/5e15f64b299ff","extension":"jpg"}],"creators":{"available":3,"collectionURI":"http://gateway.marvel.com/v1/public/comics/84518/creators","items":[{"resourceURI":"http://gateway.marvel.com/v1/public/creators/11765","name":"Christos Gage","role":"writer"},{"resourceURI":"http://gateway.marvel.com/v1/public/creators/12983","name":"Dan Slott","role":"writer"},{"resourceURI":"http://gateway.marvel.com/v1/public/creators/826","name":"Pete Woods","role":"penciller (cover)"}],"returned":3},"characters":{"available":1,"collectionURI":"http://gateway.marvel.com/v1/public/comics/84518/characters","items":[{"resourceURI":"http://gateway.marvel.com/v1/public/characters/1009368","name":"Iron Man"}],"returned":1},"stories":{"available":2,"collectionURI":"http://gateway.marvel.com/v1/public/comics/84518/stories","items":[{"resourceURI":"http://gateway.marvel.com/v1/public/stories/186837","name":"cover from Iron Man 2020 1 Director's Cut Edition (2020) #1","type":"cover"},{"resourceURI":"http://gateway.marvel.com/v1/public/stories/186838","name":"story from Iron Man 2020 1 Director's Cut Edition (2020) #1","type":"interiorStory"}],"returned":2},"events":{"available":0,"collectionURI":"http://gateway.marvel.com/v1/public/comics/84518/events","items":[],"returned":0}}]}}